<svg width="423" height="423" viewBox="0 0 423 423" fill="none" xmlns="http://www.w3.org/2000/svg">
<g clip-path="url(#clip0)">
<path d="M12.3909 75.2629H336.563V50.4521H12.3909C5.55105 50.4521 0 56.0098 0 62.8579C0 69.7053 5.55105 75.2629 12.3909 75.2629Z" fill="black"/>
<path d="M413.142 50.71L410.911 51.4378V75.2564C417.611 75.0994 422.996 69.6078 422.996 62.8588C422.997 56.8798 418.767 51.8848 413.142 50.71Z" fill="black"/>
<path d="M12.3909 174.509H37.2149V149.697H12.3909C5.55105 149.697 0 155.255 0 162.103C0 168.951 5.55105 174.509 12.3909 174.509Z" fill="black"/>
<path d="M224.224 174.509C267.272 162.332 267.393 161.783 274.715 161.971C274.93 157.811 275.599 153.7 276.69 149.697H111.563V174.509H224.224Z" fill="black"/>
<path d="M0 360.592C0 367.44 5.55105 372.998 12.3909 372.998H39.6926C42.0555 364.017 46.5077 355.548 52.6288 348.187H12.3909C5.55105 348.187 0 353.745 0 360.592H0Z" fill="black"/>
<path d="M410.605 348.188H310.922C310.922 358.761 311.131 364.307 308.675 372.999H410.605C417.445 372.999 422.996 367.441 422.996 360.593C422.996 353.745 417.446 348.188 410.605 348.188Z" fill="black"/>
<path d="M410.604 248.942H310.921V273.754H410.604C417.444 273.754 422.995 268.196 422.995 261.348C422.996 254.5 417.445 248.942 410.604 248.942Z" fill="black"/>
<path d="M270.376 187.233L133.789 225.874C128.452 227.383 124.767 232.259 124.767 237.812V349.411C92.4889 338.166 56.1984 365.211 63.4101 395.371C67.265 411.495 82.9466 423.001 102.636 423.001C125.14 423.001 144.562 408.172 148.729 389.346C149.883 386.314 149.549 391.483 149.549 311.927L261.353 282.045V324.766C229.42 313.654 192.633 339.843 200.008 370.169C207.672 401.682 256.213 407.235 278.125 379.271C283.998 371.775 286.743 362.865 285.987 354.216C286.208 352.718 286.136 363.581 286.136 199.172C286.137 190.943 278.27 185 270.376 187.233Z" fill="black"/>
<path d="M61.9984 112.481V225.344C29.8777 214.317 -6.27563 240.98 0.9509 270.83C4.79343 286.701 20.3527 298.118 40.0313 298.118C61.9174 298.114 80.9962 284.159 85.6889 265.979C87.2503 262.501 86.7811 272.843 86.7811 112.481C86.7811 105.63 81.2333 100.075 74.3902 100.075C67.547 100.075 61.9984 105.63 61.9984 112.481Z" fill="black"/>
<path d="M339.376 199.652C366.699 199.652 388.714 178.091 385.865 155.25C386.254 153.378 386.127 161.643 386.127 33.4034L414.43 24.2081C420.939 22.0931 424.504 15.0955 422.392 8.57944C420.279 2.06259 413.292 -1.50482 406.781 0.608529L369.912 12.5872C364.804 14.2461 361.345 19.0107 361.345 24.3874V126.878C329.224 115.852 293.071 142.513 300.298 172.365C304.149 188.282 319.755 199.652 339.376 199.652Z" fill="black"/>
<path d="M410.911 149.704C410.911 160.444 411.213 165.819 408.854 174.507H410.605C417.445 174.507 422.996 168.95 422.996 162.102C422.997 155.353 417.611 149.862 410.911 149.704Z" fill="black"/>
</g>
<mask id="mask0" mask-type="alpha" maskUnits="userSpaceOnUse" x="0" y="0" width="423" height="423">
<g clip-path="url(#clip1)">
<path d="M12.3909 75.2629H336.563V50.4521H12.3909C5.55105 50.4521 0 56.0098 0 62.8579C0 69.7053 5.55105 75.2629 12.3909 75.2629Z" fill="black"/>
<path d="M413.142 50.71L410.911 51.4378V75.2564C417.611 75.0994 422.996 69.6078 422.996 62.8588C422.997 56.8798 418.767 51.8848 413.142 50.71Z" fill="black"/>
<path d="M12.3909 174.509H37.2149V149.697H12.3909C5.55105 149.697 0 155.255 0 162.103C0 168.951 5.55105 174.509 12.3909 174.509Z" fill="black"/>
<path d="M224.224 174.509C267.272 162.332 267.393 161.783 274.715 161.971C274.93 157.811 275.599 153.7 276.69 149.697H111.563V174.509H224.224Z" fill="black"/>
<path d="M0 360.592C0 367.44 5.55105 372.998 12.3909 372.998H39.6926C42.0555 364.017 46.5077 355.548 52.6288 348.187H12.3909C5.55105 348.187 0 353.745 0 360.592H0Z" fill="black"/>
<path d="M410.605 348.188H310.922C310.922 358.761 311.131 364.307 308.675 372.999H410.605C417.445 372.999 422.996 367.441 422.996 360.593C422.996 353.745 417.446 348.188 410.605 348.188Z" fill="black"/>
<path d="M410.604 248.942H310.921V273.754H410.604C417.444 273.754 422.995 268.196 422.995 261.348C422.996 254.5 417.445 248.942 410.604 248.942Z" fill="black"/>
<path d="M270.376 187.233L133.789 225.874C128.452 227.383 124.767 232.259 124.767 237.812V349.411C92.4889 338.166 56.1984 365.211 63.4101 395.371C67.265 411.495 82.9466 423.001 102.636 423.001C125.14 423.001 144.562 408.172 148.729 389.346C149.883 386.314 149.549 391.483 149.549 311.927L261.353 282.045V324.766C229.42 313.654 192.633 339.843 200.008 370.169C207.672 401.682 256.213 407.235 278.125 379.271C283.998 371.775 286.743 362.865 285.987 354.216C286.208 352.718 286.136 363.581 286.136 199.172C286.137 190.943 278.27 185 270.376 187.233Z" fill="black"/>
<path d="M61.9984 112.481V225.344C29.8777 214.317 -6.27563 240.98 0.9509 270.83C4.79343 286.701 20.3527 298.118 40.0313 298.118C61.9174 298.114 80.9962 284.159 85.6889 265.979C87.2503 262.501 86.7811 272.843 86.7811 112.481C86.7811 105.63 81.2333 100.075 74.3902 100.075C67.547 100.075 61.9984 105.63 61.9984 112.481Z" fill="black"/>
<path d="M339.376 199.652C366.699 199.652 388.714 178.091 385.865 155.25C386.254 153.378 386.127 161.643 386.127 33.4034L414.43 24.2081C420.939 22.0931 424.504 15.0955 422.392 8.57944C420.279 2.06259 413.292 -1.50482 406.781 0.608529L369.912 12.5872C364.804 14.2461 361.345 19.0107 361.345 24.3874V126.878C329.224 115.852 293.071 142.513 300.298 172.365C304.149 188.282 319.755 199.652 339.376 199.652Z" fill="black"/>
<path d="M410.911 149.704C410.911 160.444 411.213 165.819 408.854 174.507H410.605C417.445 174.507 422.996 168.95 422.996 162.102C422.997 155.353 417.611 149.862 410.911 149.704Z" fill="black"/>
</g>
</mask>
<g mask="url(#mask0)">
<rect x="-51" y="218" width="558" height="264" fill="#DE4F22"/>
</g>
<defs>
<clipPath id="clip0">
<rect width="423" height="423" fill="white"/>
</clipPath>
<clipPath id="clip1">
<rect width="423" height="423" fill="white"/>
</clipPath>
</defs>
</svg>
