<svg width="384" height="383" viewBox="0 0 384 383" fill="none" xmlns="http://www.w3.org/2000/svg">
<g clip-path="url(#clip0)">
<path d="M382.749 178.045V206.761C382.749 237.482 380.049 268.071 379.929 269.363L379.891 269.752C379.508 272.77 375.844 299.659 363.148 313.49C347.901 330.29 330.716 332.111 322.458 332.986C321.672 333.068 320.953 333.144 320.31 333.235L319.644 333.302C269.011 336.991 192.543 337.492 191.781 337.501H191.547C191.182 337.492 190.031 337.477 188.228 337.448C170.909 337.17 93.2374 335.806 66.7664 333.279L65.8752 333.159C64.9635 332.995 63.6164 332.846 62.0619 332.664C52.2146 331.534 33.8933 329.435 19.4086 313.549C6.13664 299.571 2.91361 272.592 2.58342 269.556L2.56881 269.363C2.44901 268.071 -0.250977 237.482 -0.250977 206.761V178.045C-0.250977 147.327 2.44901 116.729 2.56881 115.438L2.6068 115.048C2.98959 112.027 6.65385 85.141 19.3502 71.3161C34.8079 54.2852 52.0802 52.2855 60.3934 51.3252C61.045 51.2491 61.6411 51.1817 62.1817 51.1085L62.8626 51.0412C108.236 47.765 173.629 47.0009 188.228 46.8721C190.066 46.8516 191.1 46.8428 191.182 46.8428H191.316C192.088 46.8516 268.546 47.3522 319.18 51.0412L319.855 51.1085C320.422 51.1817 321.059 51.2579 321.754 51.3398C330.155 52.3001 347.623 54.294 363.028 70.7334C376.361 84.6989 379.593 112.179 379.915 115.265L379.929 115.438C380.049 116.729 382.749 147.327 382.749 178.045Z" fill="#FF5B5B"/>
<path d="M382.748 178.045V206.761C382.748 237.482 380.048 268.071 379.928 269.363L379.89 269.752C379.507 272.77 375.843 299.659 363.147 313.49C347.9 330.29 330.715 332.111 322.457 332.986C321.671 333.068 320.952 333.144 320.309 333.235L319.643 333.302C269.01 336.991 192.542 337.492 191.78 337.501H191.546C191.181 337.492 190.029 337.477 188.227 337.448V46.8721C190.065 46.8516 191.099 46.8428 191.181 46.8428H191.315C192.087 46.8516 268.545 47.3522 319.179 51.0412L319.854 51.1085C320.42 51.1817 321.057 51.2579 321.753 51.3398C330.154 52.3001 347.622 54.294 363.027 70.7334C376.36 84.6989 379.592 112.179 379.914 115.265L379.928 115.438C380.048 116.729 382.748 147.327 382.748 178.045Z" fill="#FF3636"/>
<path d="M258.281 188.722C258.266 194.44 255.125 199.672 250.105 202.38L188.228 235.722L165.491 247.969C163.165 249.222 160.643 249.851 158.122 249.851C155.369 249.851 152.631 249.102 150.153 247.626C145.411 244.783 142.582 239.785 142.582 234.252V142.276C142.582 136.722 145.434 131.715 150.2 128.881C154.972 126.047 160.725 125.951 165.587 128.612L188.228 141.026L250.201 175.003C255.207 177.749 258.304 183.01 258.281 188.722Z" fill="white"/>
<path d="M258.28 188.722C258.265 194.44 255.124 199.672 250.104 202.38L188.227 235.721V141.025L250.2 175.002C255.206 177.748 258.303 183.01 258.28 188.722Z" fill="#96FFF6"/>
</g>
<defs>
<clipPath id="clip0">
<rect width="383" height="383" fill="white" transform="translate(0.496094)"/>
</clipPath>
</defs>
</svg>
