<svg width="71" height="72" viewBox="0 0 71 72" fill="none" xmlns="http://www.w3.org/2000/svg">
<g clip-path="url(#clip0)">
<path d="M4.45722 17.9534C3.84583 17.9534 3.3457 17.4592 3.3457 16.8473C3.3457 16.2359 3.83449 15.7412 4.44533 15.7412H4.45722C5.06806 15.7412 5.56333 16.2359 5.56333 16.8473C5.56333 17.4592 5.06806 17.9534 4.45722 17.9534Z" fill="#DE4F22"/>
<path d="M7.77582 17.9534C7.16443 17.9534 6.66431 17.4592 6.66431 16.8473C6.66431 16.2359 7.15309 15.7412 7.76394 15.7412H7.77582C8.38666 15.7412 8.88193 16.2359 8.88193 16.8473C8.88193 17.4592 8.38666 17.9534 7.77582 17.9534Z" fill="#DE4F22"/>
<path d="M11.0942 17.9534C10.4828 17.9534 9.98267 17.4592 9.98267 16.8473C9.98267 16.2359 10.4715 15.7412 11.0823 15.7412H11.0942C11.705 15.7412 12.2003 16.2359 12.2003 16.8473C12.2003 17.4592 11.705 17.9534 11.0942 17.9534Z" fill="#DE4F22"/>
<path d="M44.2647 58.8793H1.12638C0.514449 58.8793 0.0202637 58.3851 0.0202637 57.7731V19.0592C0.0202637 18.4479 0.514449 17.9531 1.12638 17.9531H44.2647C44.8761 17.9531 45.3708 18.4479 45.3708 19.0592V57.7731C45.3708 58.3851 44.875 58.8793 44.2647 58.8793ZM2.23249 56.667H43.1586V20.1653H2.23249V56.667Z" fill="#DE4F22"/>
<path d="M1.10611 17.9537C0.494186 17.9537 0 17.4596 0 16.8476C0 15.0183 1.48904 13.5293 3.31834 13.5293C3.93026 13.5293 4.42445 14.024 4.42445 14.6354C4.42445 15.2473 3.93026 15.7415 3.31834 15.7415C2.70803 15.7415 2.21222 16.2373 2.21222 16.8476C2.21222 17.4596 1.71804 17.9537 1.10611 17.9537Z" fill="#DE4F22"/>
<path d="M1.10611 20.1657C0.494186 20.1657 0 19.6715 0 19.0595V16.8473C0 16.2359 0.494186 15.7412 1.10611 15.7412C1.71804 15.7412 2.21222 16.2359 2.21222 16.8473V19.0595C2.21222 19.6715 1.71804 20.1657 1.10611 20.1657Z" fill="#DE4F22"/>
<path d="M44.2444 17.9537C43.6324 17.9537 43.1382 17.4596 43.1382 16.8476C43.1382 16.2373 42.6424 15.7415 42.0321 15.7415C41.4202 15.7415 40.926 15.2473 40.926 14.6354C40.926 14.024 41.4202 13.5293 42.0321 13.5293C43.8614 13.5293 45.3505 15.0183 45.3505 16.8476C45.3505 17.4596 44.8563 17.9537 44.2444 17.9537Z" fill="#DE4F22"/>
<path d="M44.2445 20.1657C43.6326 20.1657 43.1384 19.6715 43.1384 19.0595V16.8473C43.1384 16.2359 43.6326 15.7412 44.2445 15.7412C44.8565 15.7412 45.3507 16.2359 45.3507 16.8473V19.0595C45.3507 19.6715 44.8565 20.1657 44.2445 20.1657Z" fill="#DE4F22"/>
<path d="M42.0324 15.7415H3.31851C2.70659 15.7415 2.2124 15.2473 2.2124 14.6354C2.2124 14.024 2.70659 13.5293 3.31851 13.5293H42.0324C42.6443 13.5293 43.1385 14.024 43.1385 14.6354C43.1385 15.2473 42.6443 15.7415 42.0324 15.7415Z" fill="#DE4F22"/>
<path d="M38.7031 34.5445H6.62589C6.01396 34.5445 5.51978 34.0503 5.51978 33.4384V24.5895C5.51978 23.9781 6.01396 23.4834 6.62589 23.4834H38.7031C39.3145 23.4834 39.8092 23.9781 39.8092 24.5895V33.4384C39.8092 34.0503 39.3145 34.5445 38.7031 34.5445ZM7.732 32.3323H37.597V25.6956H7.732V32.3323Z" fill="#DE4F22"/>
<path d="M23.2176 40.0755H6.62589C6.01396 40.0755 5.51978 39.5813 5.51978 38.9694C5.51978 38.358 6.01396 37.8633 6.62589 37.8633H23.2176C23.8289 37.8633 24.3237 38.358 24.3237 38.9694C24.3237 39.5813 23.8289 40.0755 23.2176 40.0755Z" fill="#DE4F22"/>
<path d="M16.5809 44.5003H6.62589C6.01396 44.5003 5.51978 44.0061 5.51978 43.3942C5.51978 42.7828 6.01396 42.2881 6.62589 42.2881H16.5809C17.1923 42.2881 17.687 42.7828 17.687 43.3942C17.687 44.0061 17.1923 44.5003 16.5809 44.5003Z" fill="#DE4F22"/>
<path d="M38.7033 44.5003H21.0055C20.3936 44.5003 19.8994 44.0061 19.8994 43.3942C19.8994 42.7828 20.3936 42.2881 21.0055 42.2881H38.7033C39.3147 42.2881 39.8094 42.7828 39.8094 43.3942C39.8094 44.0061 39.3147 44.5003 38.7033 44.5003Z" fill="#DE4F22"/>
<path d="M21.0053 53.3489H6.62589C6.01396 53.3489 5.51978 52.8548 5.51978 52.2428C5.51978 51.6314 6.01396 51.1367 6.62589 51.1367H21.0053C21.6167 51.1367 22.1115 51.6314 22.1115 52.2428C22.1115 52.8548 21.6167 53.3489 21.0053 53.3489Z" fill="#DE4F22"/>
<path d="M38.7032 53.3489H25.4298C24.8179 53.3489 24.3237 52.8548 24.3237 52.2428C24.3237 51.6314 24.8179 51.1367 25.4298 51.1367H38.7032C39.3146 51.1367 39.8093 51.6314 39.8093 52.2428C39.8093 52.8548 39.3146 53.3489 38.7032 53.3489Z" fill="#DE4F22"/>
<path d="M28.7481 48.9241H6.62589C6.01396 48.9241 5.51978 48.43 5.51978 47.818C5.51978 47.2066 6.01396 46.7119 6.62589 46.7119H28.7481C29.3595 46.7119 29.8542 47.2066 29.8542 47.818C29.8542 48.43 29.3595 48.9241 28.7481 48.9241Z" fill="#DE4F22"/>
<path d="M38.7033 48.9241H33.1728C32.5608 48.9241 32.0667 48.43 32.0667 47.818C32.0667 47.2066 32.5608 46.7119 33.1728 46.7119H38.7033C39.3147 46.7119 39.8094 47.2066 39.8094 47.818C39.8094 48.43 39.3147 48.9241 38.7033 48.9241Z" fill="#DE4F22"/>
<path d="M38.7034 40.0755H27.6422C27.0303 40.0755 26.5361 39.5813 26.5361 38.9694C26.5361 38.358 27.0303 37.8633 27.6422 37.8633H38.7034C39.3147 37.8633 39.8095 38.358 39.8095 38.9694C39.8095 39.5813 39.3147 40.0755 38.7034 40.0755Z" fill="#DE4F22"/>
<path d="M30.9798 30.1204H14.3881C13.7767 30.1204 13.282 29.6262 13.282 29.0143C13.282 28.4029 13.7767 27.9082 14.3881 27.9082H30.9798C31.5917 27.9082 32.0859 28.4029 32.0859 29.0143C32.0859 29.6262 31.5917 30.1204 30.9798 30.1204Z" fill="#DE4F22"/>
<path d="M48.6774 56.6672C48.066 56.6672 47.5713 56.173 47.5713 55.5611V38.9694C47.5713 38.358 48.066 37.8633 48.6774 37.8633C49.2893 37.8633 49.7835 38.358 49.7835 38.9694V55.5611C49.7835 56.173 49.2893 56.6672 48.6774 56.6672Z" fill="#DE4F22"/>
<path d="M50.8896 58.8795C49.0603 58.8795 47.5713 57.391 47.5713 55.5612C47.5713 54.9498 48.066 54.4551 48.6774 54.4551C49.2893 54.4551 49.7835 54.9498 49.7835 55.5612C49.7835 56.172 50.2793 56.6673 50.8896 56.6673C51.5016 56.6673 51.9957 57.162 51.9957 57.7734C51.9957 58.3853 51.5016 58.8795 50.8896 58.8795Z" fill="#DE4F22"/>
<path d="M65.2692 56.6672C64.6578 56.6672 64.1631 56.173 64.1631 55.5611V38.9694C64.1631 38.358 64.6578 37.8633 65.2692 37.8633C65.8811 37.8633 66.3753 38.358 66.3753 38.9694V55.5611C66.3753 56.173 65.8811 56.6672 65.2692 56.6672Z" fill="#DE4F22"/>
<path d="M63.057 58.8795C62.4457 58.8795 61.9509 58.3853 61.9509 57.7734C61.9509 57.162 62.4457 56.6673 63.057 56.6673C63.6679 56.6673 64.1632 56.172 64.1632 55.5612C64.1632 54.9498 64.6579 54.4551 65.2693 54.4551C65.8812 54.4551 66.3754 54.9498 66.3754 55.5612C66.3754 57.391 64.8869 58.8795 63.057 58.8795Z" fill="#DE4F22"/>
<path d="M65.2691 40.0755H48.6774C48.066 40.0755 47.5713 39.5813 47.5713 38.9694C47.5713 38.358 48.066 37.8633 48.6774 37.8633H65.2691C65.881 37.8633 66.3752 38.358 66.3752 38.9694C66.3752 39.5813 65.881 40.0755 65.2691 40.0755Z" fill="#DE4F22"/>
<path d="M63.057 58.8792H50.8898C50.2784 58.8792 49.7837 58.385 49.7837 57.7731C49.7837 57.1617 50.2784 56.667 50.8898 56.667H63.057C63.669 56.667 64.1631 57.1617 64.1631 57.7731C64.1631 58.385 63.669 58.8792 63.057 58.8792Z" fill="#DE4F22"/>
<path d="M69.6936 43.3939H65.2692C64.6578 43.3939 64.1631 42.8997 64.1631 42.2878C64.1631 41.6764 64.6578 41.1816 65.2692 41.1816H69.6936C70.3056 41.1816 70.7997 41.6764 70.7997 42.2878C70.7997 42.8997 70.3056 43.3939 69.6936 43.3939Z" fill="#DE4F22"/>
<path d="M69.6938 54.455C69.0824 54.455 68.5876 53.9608 68.5876 53.3489V42.2878C68.5876 41.6764 69.0824 41.1816 69.6938 41.1816C70.3057 41.1816 70.7999 41.6764 70.7999 42.2878V53.3489C70.7999 53.9608 70.3057 54.455 69.6938 54.455Z" fill="#DE4F22"/>
<path d="M69.6936 54.4554H65.2692C64.6578 54.4554 64.1631 53.9612 64.1631 53.3493C64.1631 52.7379 64.6578 52.2432 65.2692 52.2432H69.6936C70.3056 52.2432 70.7997 52.7379 70.7997 53.3493C70.7997 53.9612 70.3056 54.4554 69.6936 54.4554Z" fill="#DE4F22"/>
<path d="M56.9734 52.2428C54.839 52.2428 53.1021 50.5064 53.1021 48.3714C53.1021 46.2369 54.839 44.5 56.9734 44.5C59.1084 44.5 60.8448 46.2369 60.8448 48.3714C60.8448 50.5064 59.1084 52.2428 56.9734 52.2428ZM56.9734 46.7122C56.0591 46.7122 55.3143 47.4565 55.3143 48.3714C55.3143 49.2863 56.0591 50.0306 56.9734 50.0306C57.8884 50.0306 58.6326 49.2863 58.6326 48.3714C58.6326 47.4565 57.8884 46.7122 56.9734 46.7122Z" fill="#DE4F22"/>
<path d="M62.125 40.0768C62.0618 40.0768 61.9986 40.0714 61.9349 40.0606C61.3332 39.9553 60.9292 39.3833 61.0345 38.7817L64.1989 20.5454C64.3053 19.9437 64.8778 19.5419 65.4773 19.6451C66.0795 19.7498 66.483 20.3218 66.3777 20.9235L63.2133 39.1597C63.1204 39.6977 62.6537 40.0768 62.125 40.0768Z" fill="#DE4F22"/>
<path d="M58.7526 40.0808C58.6894 40.0808 58.6262 40.0754 58.5619 40.0646C57.9592 39.9593 57.5568 39.3873 57.6616 38.7857L60.9303 19.9763C61.0367 19.3747 61.607 18.9756 62.2092 19.076C62.8119 19.1808 63.2143 19.7528 63.1095 20.3544L59.8409 39.1643C59.748 39.7016 59.2814 40.0808 58.7526 40.0808Z" fill="#DE4F22"/>
<path d="M65.2893 21.8402C65.2266 21.8402 65.1634 21.8348 65.0991 21.8235L61.8305 21.2548C61.2278 21.15 60.8254 20.578 60.9302 19.9763C61.0366 19.3747 61.6069 18.9756 62.2091 19.076L65.4772 19.6447C66.0805 19.7495 66.4829 20.3215 66.3775 20.9231C66.2847 21.4605 65.818 21.8402 65.2893 21.8402Z" fill="#DE4F22"/>
<path d="M64.5336 26.1984C64.4709 26.1984 64.4077 26.193 64.3435 26.1817L61.0727 25.6135C60.471 25.5082 60.0675 24.9363 60.1723 24.3346C60.2776 23.7329 60.855 23.3306 61.4513 23.4343L64.7221 24.003C65.3237 24.1077 65.7272 24.6797 65.6224 25.2814C65.5284 25.8193 65.0612 26.1984 64.5336 26.1984Z" fill="#DE4F22"/>
<path d="M63.7754 30.5585C63.7122 30.5585 63.649 30.5531 63.5847 30.5418L60.3161 29.9736C59.7134 29.8683 59.311 29.2963 59.4158 28.6947C59.5211 28.093 60.0898 27.6917 60.6947 27.7943L63.9633 28.363C64.5661 28.4678 64.9685 29.0398 64.8637 29.6414C64.7708 30.1794 64.3036 30.5585 63.7754 30.5585Z" fill="#DE4F22"/>
</g>
<defs>
<clipPath id="clip0">
<rect width="70.8" height="70.8" fill="white" transform="translate(0 0.799805)"/>
</clipPath>
</defs>
</svg>
