<svg width="170" height="170" viewBox="0 0 170 170" fill="none" xmlns="http://www.w3.org/2000/svg">
<g clip-path="url(#clip0)">
<path d="M169.909 106.39C169.485 96.6497 167.791 85.8508 165.25 75.6872C162.71 65.947 159.533 56.8421 155.722 49.8546C140.9 23.8103 124.808 27.8334 105.539 32.9152C99.3986 34.3974 92.8345 36.0914 86.0588 36.7266H83.9414C77.1656 36.0914 70.6016 34.3974 64.4611 32.9152C45.1925 28.0452 29.1001 23.8103 14.2781 50.0664C10.4667 57.0539 7.07887 66.1588 4.74971 75.8989C2.2088 86.0626 0.514858 96.8614 0.0913737 106.602C-0.332111 117.4 0.726601 125.235 3.05577 130.74C5.38493 135.822 8.77281 138.998 13.2194 140.269C17.2425 141.327 21.9008 140.904 26.7709 138.786C35.0289 135.399 44.5573 128.199 53.8739 119.518C60.438 113.166 72.719 109.989 85.0001 109.989C97.2811 109.989 109.562 113.166 116.126 119.518C125.443 128.199 134.971 135.399 143.229 138.786C148.099 140.692 152.758 141.327 156.781 140.269C161.016 138.998 164.615 136.034 166.944 130.528C169.274 125.235 170.332 117.4 169.909 106.39ZM159.745 127.564C158.475 130.528 156.781 132.222 154.663 132.858C152.334 133.493 149.37 133.069 145.982 131.799C138.571 128.835 129.889 122.271 121.42 114.224C113.374 106.178 99.1868 102.155 85.0001 102.155C70.8133 102.155 56.6266 106.178 48.3686 113.801C39.6872 121.847 31.0058 128.623 23.8065 131.375C20.4186 132.646 17.4542 133.281 15.1251 132.434C13.0077 131.799 11.3137 130.105 10.0433 127.141C8.34933 123.117 7.50236 116.553 7.92584 106.813C8.34933 97.7084 9.83152 87.333 12.3724 77.5929C14.7016 68.4879 17.666 60.0182 21.2656 53.666C32.9114 32.7035 46.463 36.0914 62.5554 40.3262C69.1194 42.0202 75.8951 43.7141 83.3061 44.3493C83.5179 44.3493 83.5179 44.3493 83.7296 44.3493H86.0588C86.2705 44.3493 86.2705 44.3493 86.4823 44.3493C94.105 43.7141 100.881 42.0202 107.445 40.3262C123.537 36.3031 137.089 32.7035 148.735 53.666C152.334 60.0182 155.299 68.2762 157.628 77.5929C159.957 87.333 161.651 97.4967 162.074 106.813C162.498 116.553 161.651 123.117 159.745 127.564Z" fill="#FFD162"/>
<path d="M65.5203 65.1013C63.4029 63.1956 60.862 61.7134 57.8976 61.5016C57.6858 58.749 56.4154 55.9963 54.5097 54.0907L54.298 53.8789C51.9688 51.5497 49.0044 50.2793 45.6165 50.2793C42.2286 50.2793 39.0525 51.7615 36.9351 53.8789C35.0294 55.7846 33.5472 58.5372 33.3355 61.5016C30.3711 61.7134 27.8302 62.9838 25.7127 64.8895L25.501 65.1013C23.1718 67.4304 21.9014 70.3948 21.9014 73.7827C21.9014 77.1706 23.3836 80.3467 25.501 82.4641C27.6184 84.5816 30.1593 85.852 33.3355 86.0638C33.5472 89.0281 34.8177 91.7808 36.9351 93.6865C39.2642 96.0157 42.2286 97.2861 45.6165 97.2861C49.0044 97.2861 52.1805 95.8039 54.298 93.6865C56.2036 91.5691 57.6858 89.0281 57.8976 86.0638C60.862 85.852 63.6146 84.5816 65.5203 82.4641C67.8495 80.135 69.1199 77.1706 69.1199 73.7827C69.1199 70.3948 67.6377 67.2187 65.5203 65.1013ZM60.2267 76.9588C59.3798 77.8058 58.3211 78.2293 57.0506 78.2293H54.0862C51.9688 78.2293 50.0631 79.9232 50.0631 82.2524V85.005C50.0631 86.2755 49.6396 87.3342 48.7926 88.1812C47.9457 89.0281 46.887 89.4516 45.6165 89.4516C44.3461 89.4516 43.2873 89.0281 42.4404 88.1812C41.5934 87.3342 41.1699 86.2755 41.1699 85.005V82.0407C41.1699 79.9232 39.476 78.0175 37.1468 78.0175H34.1824C32.912 78.0175 31.8533 77.5941 31.0063 76.7471C30.3711 76.1119 29.7358 75.0532 29.7358 73.7827C29.7358 72.5122 30.1593 71.4535 31.0063 70.6066C31.0063 70.6066 31.0063 70.6066 31.218 70.3948C32.065 69.7596 33.1237 69.3361 34.1824 69.3361H37.1468C39.2642 69.3361 41.1699 67.6422 41.1699 65.313V62.3486C41.1699 61.0782 41.5934 60.0194 42.4404 59.1725C43.2873 58.3255 44.3461 57.902 45.6165 57.902C46.887 57.902 47.9457 58.3255 48.7926 59.1725C48.7926 59.1725 48.7927 59.1725 49.0044 59.3842C49.6396 60.2312 50.0631 61.2899 50.0631 62.3486V65.313C50.0631 67.4304 51.757 69.3361 54.0862 69.3361H57.0506C58.3211 69.3361 59.3798 69.7596 60.2267 70.6066C61.0737 71.4535 61.4972 72.5122 61.4972 73.7827C61.4972 75.0532 61.0737 76.1119 60.2267 76.9588Z" fill="#FFD162"/>
<path d="M121.843 66.1599C125.936 66.1599 129.254 62.8418 129.254 58.7489C129.254 54.6559 125.936 51.3379 121.843 51.3379C117.75 51.3379 114.432 54.6559 114.432 58.7489C114.432 62.8418 117.75 66.1599 121.843 66.1599Z" fill="#FFD162"/>
<path d="M121.843 96.2263C125.936 96.2263 129.254 92.9083 129.254 88.8153C129.254 84.7223 125.936 81.4043 121.843 81.4043C117.75 81.4043 114.432 84.7223 114.432 88.8153C114.432 92.9083 117.75 96.2263 121.843 96.2263Z" fill="#FFD162"/>
<path d="M106.809 81.1931C110.902 81.1931 114.22 77.8751 114.22 73.7821C114.22 69.6891 110.902 66.3711 106.809 66.3711C102.716 66.3711 99.3984 69.6891 99.3984 73.7821C99.3984 77.8751 102.716 81.1931 106.809 81.1931Z" fill="#FFD162"/>
<path d="M136.877 81.1931C140.97 81.1931 144.288 77.8751 144.288 73.7821C144.288 69.6891 140.97 66.3711 136.877 66.3711C132.784 66.3711 129.466 69.6891 129.466 73.7821C129.466 77.8751 132.784 81.1931 136.877 81.1931Z" fill="#FFD162"/>
</g>
<mask id="mask0" mask-type="alpha" maskUnits="userSpaceOnUse" x="0" y="0" width="170" height="170">
<g clip-path="url(#clip1)">
<path d="M169.909 106.39C169.485 96.6497 167.791 85.8508 165.25 75.6872C162.71 65.947 159.533 56.8421 155.722 49.8546C140.9 23.8103 124.808 27.8334 105.539 32.9152C99.3986 34.3974 92.8345 36.0914 86.0588 36.7266H83.9414C77.1656 36.0914 70.6016 34.3974 64.4611 32.9152C45.1925 28.0452 29.1001 23.8103 14.2781 50.0664C10.4667 57.0539 7.07887 66.1588 4.74971 75.8989C2.2088 86.0626 0.514858 96.8614 0.0913737 106.602C-0.332111 117.4 0.726601 125.235 3.05577 130.74C5.38493 135.822 8.77281 138.998 13.2194 140.269C17.2425 141.327 21.9008 140.904 26.7709 138.786C35.0289 135.399 44.5573 128.199 53.8739 119.518C60.438 113.166 72.719 109.989 85.0001 109.989C97.2811 109.989 109.562 113.166 116.126 119.518C125.443 128.199 134.971 135.399 143.229 138.786C148.099 140.692 152.758 141.327 156.781 140.269C161.016 138.998 164.615 136.034 166.944 130.528C169.274 125.235 170.332 117.4 169.909 106.39ZM159.745 127.564C158.475 130.528 156.781 132.222 154.663 132.858C152.334 133.493 149.37 133.069 145.982 131.799C138.571 128.835 129.889 122.271 121.42 114.224C113.374 106.178 99.1868 102.155 85.0001 102.155C70.8133 102.155 56.6266 106.178 48.3686 113.801C39.6872 121.847 31.0058 128.623 23.8065 131.375C20.4186 132.646 17.4542 133.281 15.1251 132.434C13.0077 131.799 11.3137 130.105 10.0433 127.141C8.34933 123.117 7.50236 116.553 7.92584 106.813C8.34933 97.7084 9.83152 87.333 12.3724 77.5929C14.7016 68.4879 17.666 60.0182 21.2656 53.666C32.9114 32.7035 46.463 36.0914 62.5554 40.3262C69.1194 42.0202 75.8951 43.7141 83.3061 44.3493C83.5179 44.3493 83.5179 44.3493 83.7296 44.3493H86.0588C86.2705 44.3493 86.2705 44.3493 86.4823 44.3493C94.105 43.7141 100.881 42.0202 107.445 40.3262C123.537 36.3031 137.089 32.7035 148.735 53.666C152.334 60.0182 155.299 68.2762 157.628 77.5929C159.957 87.333 161.651 97.4967 162.074 106.813C162.498 116.553 161.651 123.117 159.745 127.564Z" fill="black"/>
<path d="M65.5203 65.1013C63.4029 63.1956 60.862 61.7134 57.8976 61.5016C57.6858 58.749 56.4154 55.9963 54.5097 54.0907L54.298 53.8789C51.9688 51.5497 49.0044 50.2793 45.6165 50.2793C42.2286 50.2793 39.0525 51.7615 36.9351 53.8789C35.0294 55.7846 33.5472 58.5372 33.3355 61.5016C30.3711 61.7134 27.8302 62.9838 25.7127 64.8895L25.501 65.1013C23.1718 67.4304 21.9014 70.3948 21.9014 73.7827C21.9014 77.1706 23.3836 80.3467 25.501 82.4641C27.6184 84.5816 30.1593 85.852 33.3355 86.0638C33.5472 89.0281 34.8177 91.7808 36.9351 93.6865C39.2642 96.0157 42.2286 97.2861 45.6165 97.2861C49.0044 97.2861 52.1805 95.8039 54.298 93.6865C56.2036 91.5691 57.6858 89.0281 57.8976 86.0638C60.862 85.852 63.6146 84.5816 65.5203 82.4641C67.8495 80.135 69.1199 77.1706 69.1199 73.7827C69.1199 70.3948 67.6377 67.2187 65.5203 65.1013ZM60.2267 76.9588C59.3798 77.8058 58.3211 78.2293 57.0506 78.2293H54.0862C51.9688 78.2293 50.0631 79.9232 50.0631 82.2524V85.005C50.0631 86.2755 49.6396 87.3342 48.7926 88.1812C47.9457 89.0281 46.887 89.4516 45.6165 89.4516C44.3461 89.4516 43.2873 89.0281 42.4404 88.1812C41.5934 87.3342 41.1699 86.2755 41.1699 85.005V82.0407C41.1699 79.9232 39.476 78.0175 37.1468 78.0175H34.1824C32.912 78.0175 31.8533 77.5941 31.0063 76.7471C30.3711 76.1119 29.7358 75.0532 29.7358 73.7827C29.7358 72.5122 30.1593 71.4535 31.0063 70.6066C31.0063 70.6066 31.0063 70.6066 31.218 70.3948C32.065 69.7596 33.1237 69.3361 34.1824 69.3361H37.1468C39.2642 69.3361 41.1699 67.6422 41.1699 65.313V62.3486C41.1699 61.0782 41.5934 60.0194 42.4404 59.1725C43.2873 58.3255 44.3461 57.902 45.6165 57.902C46.887 57.902 47.9457 58.3255 48.7926 59.1725C48.7926 59.1725 48.7927 59.1725 49.0044 59.3842C49.6396 60.2312 50.0631 61.2899 50.0631 62.3486V65.313C50.0631 67.4304 51.757 69.3361 54.0862 69.3361H57.0506C58.3211 69.3361 59.3798 69.7596 60.2267 70.6066C61.0737 71.4535 61.4972 72.5122 61.4972 73.7827C61.4972 75.0532 61.0737 76.1119 60.2267 76.9588Z" fill="black"/>
<path d="M121.843 66.1599C125.936 66.1599 129.254 62.8418 129.254 58.7489C129.254 54.6559 125.936 51.3379 121.843 51.3379C117.75 51.3379 114.432 54.6559 114.432 58.7489C114.432 62.8418 117.75 66.1599 121.843 66.1599Z" fill="black"/>
<path d="M121.843 96.2263C125.936 96.2263 129.254 92.9083 129.254 88.8153C129.254 84.7223 125.936 81.4043 121.843 81.4043C117.75 81.4043 114.432 84.7223 114.432 88.8153C114.432 92.9083 117.75 96.2263 121.843 96.2263Z" fill="black"/>
<path d="M106.809 81.1931C110.902 81.1931 114.22 77.8751 114.22 73.7821C114.22 69.6891 110.902 66.3711 106.809 66.3711C102.716 66.3711 99.3984 69.6891 99.3984 73.7821C99.3984 77.8751 102.716 81.1931 106.809 81.1931Z" fill="black"/>
<path d="M136.877 81.1931C140.97 81.1931 144.288 77.8751 144.288 73.7821C144.288 69.6891 140.97 66.3711 136.877 66.3711C132.784 66.3711 129.466 69.6891 129.466 73.7821C129.466 77.8751 132.784 81.1931 136.877 81.1931Z" fill="black"/>
</g>
</mask>
<g mask="url(#mask0)">
<rect x="-13.9683" y="73.9277" width="198.277" height="92.6653" fill="#DE4F22"/>
</g>
<defs>
<clipPath id="clip0">
<rect width="170" height="170" fill="white"/>
</clipPath>
<clipPath id="clip1">
<rect width="170" height="170" fill="white"/>
</clipPath>
</defs>
</svg>
